…
2. Use `janitor` to rename the columns and make them easier to use. As part of this cleaning step, change `country`, `isscaap_group_number`, `asfis_species_number`, and `fao_major_fishing_area` to data class factor. 

```r
fisheries %>% 
  mutate_if(is.character, factor)
```

```
## # A tibble: 17,692 × 71
##    country common_name               isscaap_group_number isscaap_taxonomic_gr…¹
##    <fct>   <fct>                                    <dbl> <fct>                 
##  1 Albania Angelsharks, sand devils…                   38 Sharks, rays, chimaer…
##  2 Albania Atlantic bonito                             36 Tunas, bonitos, billf…
##  3 Albania Barracudas nei                              37 Miscellaneous pelagic…
##  4 Albania Blue and red shrimp                         45 Shrimps, prawns       
##  5 Albania Blue whiting(=Poutassou)                    32 Cods, hakes, haddocks 
##  6 Albania Bluefish                                    37 Miscellaneous pelagic…
##  7 Albania Bogue                                       33 Miscellaneous coastal…
##  8 Albania Caramote prawn                              45 Shrimps, prawns       
##  9 Albania Catsharks, nursehounds n…                   38 Sharks, rays, chimaer…
## 10 Albania Common cuttlefish                           57 Squids, cuttlefishes,…
## # ℹ 17,682 more rows
## # ℹ abbreviated name: ¹​isscaap_taxonomic_group
## # ℹ 67 more variables: asfis_species_number <fct>, asfis_species_name <fct>,
## #   fao_major_fishing_area <dbl>, measure <fct>, x1950 <fct>, x1951 <fct>,
## #   x1952 <fct>, x1953 <fct>, x1954 <fct>, x1955 <fct>, x1956 <fct>,
## #   x1957 <fct>, x1958 <fct>, x1959 <fct>, x1960 <fct>, x1961 <fct>,
## #   x1962 <fct>, x1963 <fct>, x1964 <fct>, x1965 <fct>, x1966 <fct>, …
```
…
```
## # A tibble: 1 × 1
##   distinct_countries
##                <int>
## 1                203
```

4. Refocus the data only to include country, isscaap_taxonomic_group, asfis_species_name, asfis_species_number, year, catch.

```r
select(fisheries_tidy, "country", "isscaap_taxonomic_group", "asfis_species_name", "asfis_species_number", "year", "catch")
```

```
## # A tibble: 376,771 × 6
##    country isscaap_taxonomic_group asfis_species_name asfis_species_number  year
##    <chr>   <chr>                   <chr>              <chr>                <dbl>
##  1 Albania Sharks, rays, chimaeras Squatinidae        10903XXXXX            1995
##  2 Albania Sharks, rays, chimaeras Squatinidae        10903XXXXX            1996
##  3 Albania Sharks, rays, chimaeras Squatinidae        10903XXXXX            1997
##  4 Albania Sharks, rays, chimaeras Squatinidae        10903XXXXX            1998
##  5 Albania Sharks, rays, chimaeras Squatinidae        10903XXXXX            1999
##  6 Albania Sharks, rays, chimaeras Squatinidae        10903XXXXX            2000
##  7 Albania Sharks, rays, chimaeras Squatinidae        10903XXXXX            2001
##  8 Albania Sharks, rays, chimaeras Squatinidae        10903XXXXX            2002
##  9 Albania Sharks, rays, chimaeras Squatinidae        10903XXXXX            2003
## 10 Albania Sharks, rays, chimaeras Squatinidae        10903XXXXX            2004
## # ℹ 376,761 more rows
## # ℹ 1 more variable: catch <dbl>
```
…
6. Which country had the largest overall catch in the year 2000?

```r
fisheries_tidy %>% 
  select(country, year, catch) %>% 
  filter(year==2000) %>% 
  arrange(desc(catch))
```

```
## # A tibble: 8,793 × 3
##    country                   year catch
##    <chr>                    <dbl> <dbl>
##  1 China                     2000  9068
##  2 Peru                      2000  5717
##  3 Russian Federation        2000  5065
##  4 Viet Nam                  2000  4945
##  5 Chile                     2000  4299
##  6 China                     2000  3288
##  7 China                     2000  2782
##  8 United States of America  2000  2438
##  9 China                     2000  1234
## 10 Philippines               2000   999
## # ℹ 8,783 more rows
```

7. Which country caught the most sardines (_Sardina pilchardus_) between the years 1990-2000?

```r
fisheries_tidy %>% 
  select(country, asfis_species_name, year, catch) %>% 
  filter(year>=1990 & year<=2000) %>% 
  filter(asfis_species_name=="Sardina pilchardus") %>% 
  arrange(desc(catch))
```

```
## # A tibble: 336 × 4
##    country            asfis_species_name  year catch
##    <chr>              <chr>              <dbl> <dbl>
##  1 Morocco            Sardina pilchardus  1994   947
##  2 Morocco            Sardina pilchardus  1996   925
##  3 Spain              Sardina pilchardus  1996   912
##  4 Morocco            Sardina pilchardus  2000   859
##  5 Morocco            Sardina pilchardus  1990   845
##  6 Morocco            Sardina pilchardus  1991   827
##  7 Morocco            Sardina pilchardus  1998   723
##  8 Morocco            Sardina pilchardus  1993   710
##  9 Russian Federation Sardina pilchardus  1992   627
## 10 Russian Federation Sardina pilchardus  1991   579
## # ℹ 326 more rows
```

8. Which five countries caught the most cephalopods between 2008-2012?

```r
fisheries_tidy %>% 
  select(country, isscaap_taxonomic_group, year, catch) %>% 
  filter(year>=2008 & year<=2012) %>% 
  filter(isscaap_taxonomic_group=="Squids, cuttlefishes, octopuses") %>% 
  arrange(desc(catch))
```

```
## # A tibble: 1,801 × 4
##    country                  isscaap_taxonomic_group          year catch
##    <chr>                    <chr>                           <dbl> <dbl>
##  1 Indonesia                Squids, cuttlefishes, octopuses  2012   991
##  2 China                    Squids, cuttlefishes, octopuses  2008   981
##  3 Chile                    Squids, cuttlefishes, octopuses  2012   965
##  4 United States of America Squids, cuttlefishes, octopuses  2010   901
##  5 China                    Squids, cuttlefishes, octopuses  2012   845
##  6 Japan                    Squids, cuttlefishes, octopuses  2010   832
##  7 China                    Squids, cuttlefishes, octopuses  2010   826
##  8 Peru                     Squids, cuttlefishes, octopuses  2010   822
##  9 Korea, Republic of       Squids, cuttlefishes, octopuses  2008   816
## 10 Peru                     Squids, cuttlefishes, octopuses  2009   805
## # ℹ 1,791 more rows
```

9. Which species had the highest catch total between 2008-2012? (hint: Osteichthyes is not a species)

```r
fisheries_tidy %>% 
  select(asfis_species_name, year, catch) %>% 
  filter(year>=2008 & year<=2012) %>% 
  filter(asfis_species_name!="Osteichthyes") %>% 
  arrange(desc(catch))
```

```
## # A tibble: 49,554 × 3
##    asfis_species_name     year catch
##    <chr>                 <dbl> <dbl>
##  1 Trichiurus lepturus    2011  8221
##  2 Theragra chalcogramma  2012  8188
##  3 Engraulis ringens      2008  7981
##  4 Clupea harengus        2008  7873
##  5 Clupea harengus        2009  7250
##  6 Engraulis ringens      2012  6880
##  7 Trichiurus lepturus    2010  6841
##  8 Engraulis ringens      2008  6748
##  9 Trichiurus lepturus    2012  6694
## 10 Theragra chalcogramma  2009  6532
## # ℹ 49,544 more rows
```
…
```
## Warning: There were 120 warnings in `summarize()`.
## The first warning was:
## ℹ In argument: `min_catch = min(catch, na.rm = T)`.
## ℹ In group 41: `common_name = "Antarctic armless flounder"`.
## Caused by warning in `min()`:
## ! no non-missing arguments to min; returning Inf
## ℹ Run `dplyr::last_dplyr_warnings()` to see the 119 remaining warnings.
```

```
## # A tibble: 1,551 × 5
##    common_name                    mean_catch min_catch max_catch total
##    <chr>                               <dbl>     <dbl>     <dbl> <int>
##  1 Abalones nei                        19.8          0        97   405
##  2 Acoupa weakfish                     44.8          2        79    11
##  3 Aesop shrimp                        38            1        89    11
##  4 African forktail snapper            12.1          1        50     9
##  5 African moonfish                    27.0          0        98   251
##  6 African sicklefish                  30.8          0        99   535
##  7 African striped grunt               84           84        84     2
##  8 Akiami paste shrimp                122.           0       966   148
##  9 Alaska plaice                        9.55         0        91    32
## 10 Alaska pollock(=Walleye poll.)    1084.           0      9928   469
## # ℹ 1,541 more rows
```
…
